<?xml version="1.0" encoding="utf-8"?>
<!-- Generator: Adobe Illustrator 15.0.0, SVG Export Plug-In . SVG Version: 6.00 Build 0)  -->
<!DOCTYPE svg PUBLIC "-//W3C//DTD SVG 1.1//EN" "http://www.w3.org/Graphics/SVG/1.1/DTD/svg11.dtd">
<svg version="1.1" id="Layer_1" xmlns="http://www.w3.org/2000/svg" xmlns:xlink="http://www.w3.org/1999/xlink" x="0px" y="0px"
	 width="1116px" height="479.021px" viewBox="0 0 1116 479.021" enable-background="new 0 0 1116 479.021" xml:space="preserve">
<g id="Root">
	<g id="clamper">
		<g>
			<circle fill="none" stroke="#FFFFFF" stroke-miterlimit="10" stroke-dasharray="2,2" cx="546.04" cy="231.26" r="59.274"/>
		</g>
	</g>
	<g id="Context">
		
		<g id="Infotext">
			<linearGradient id="WindBack_1_" gradientUnits="userSpaceOnUse" x1="0" y1="39.9111" x2="263.5" y2="39.9111">
				<stop  offset="0" style="stop-color:#000000;stop-opacity:0"/>
				<stop  offset="0.1043" style="stop-color:#000000"/>
				<stop  offset="0.6319" style="stop-color:#000000"/>
				<stop  offset="1" style="stop-color:#000000;stop-opacity:0"/>
			</linearGradient>
			<rect id="WindBack" y="11.011" fill="url(#WindBack_1_)" width="263.5" height="57.8"/>
			
				<text id="TextName" transform="matrix(1 0 0 1 7.2061 31.25)" fill="#FFFFFF" font-family="'TimesNewRomanPS-BoldMT'" font-size="14">HURRICANE NAME</text>
			
				<text id="TextWind" transform="matrix(1 0 0 1 9.2061 58.1934)" fill="#FFFFFF" font-family="'TimesNewRomanPSMT'" font-size="14">Wind</text>
		</g>
			<line id="underpath" fill="none" stroke="#FFFFFF" stroke-width="0.5" stroke-miterlimit="10" x1="900" y1="364.14" x2="723.644" y2="364.14"/>
		
			<line id="pointer" fill="none" stroke="#FFFFFF" stroke-width="0.5" stroke-miterlimit="10" x1="723.644" y1="364.14" x2="605.837" y2="278.757"/>
	</g>
</g>
<g id="OriginContainer">
	<circle id="Origin" fill="none" cx="546.34" cy="233.751" r="0.699"/>
</g>
</svg>
