igrf11.values: -1.e6d -1.e5d -1e4 0d 1e4 1.e5d 1.e6d
igrf11.colors: 000000 0000FF 00FFFF FFFFFF FFFF00 FF0000 000000

ggm03s_geoid.values: -100 -80 -60 -40 -20 0 20 40 60 80
ggm03s_geoid.colors: 0000CC 0000FF 00CCFF 00FFFF 00FFCC CCFF00 FFFF00 FFCC00 FF0000 CC0000

s362d.values: -5 -1 -0.5 0 0.5 1 5
s362d.colors: 0000AA 0000FF 00FFFF 00FF00 FFFF00 FF0000 AA0000

heatflow12.values: 0 25 35 40 45 65 70
heatflow12.colors: 0000AA 0000FF 00FFFF 00FF00 FFFF00 FF0000 AA0000